<svg xmlns="http://www.w3.org/2000/svg" width="92.002" height="78.163" viewBox="0 0 92.002 78.163">
    <g id="Group_212" data-name="Group 212" transform="translate(-160.573 -90.826)">
        <path id="Path_101" data-name="Path 101" d="M107.278,116.6H34.119c-3.978,0-6.993-1.465-8.489-4.127s-1.183-6,.883-9.4L62.643,43.66c2.019-3.32,4.954-5.224,8.056-5.224s6.038,1.9,8.056,5.224h0l36.129,59.413c2.067,3.4,2.381,6.736.884,9.4S111.256,116.6,107.278,116.6ZM70.7,43.306c-1.361,0-2.781,1.05-3.895,2.884L30.674,105.6c-1.1,1.8-1.388,3.437-.8,4.482s2.136,1.646,4.246,1.646h73.159c2.11,0,3.658-.6,4.246-1.645s.3-2.68-.8-4.483L74.595,46.189C73.48,44.356,72.059,43.306,70.7,43.306Z" transform="translate(135.876 52.39)" fill="#fff"/>
        <rect id="Rectangle_145" data-name="Rectangle 145" width="5.032" height="27.383" rx="2.419" transform="translate(204.059 116.472)" fill="#fff"/>
        <ellipse id="Ellipse_36" data-name="Ellipse 36" cx="2.873" cy="2.873" rx="2.873" ry="2.873" transform="translate(203.702 147.72)" fill="#fff"/>
    </g>
</svg>
