<svg xmlns="http://www.w3.org/2000/svg" width="11.243" height="18.243" viewBox="0 0 11.243 18.243">
    <line id="Line_25" data-name="Line 25" x1="7" y2="7" transform="translate(2.121 9.121)" fill="none" stroke="#237891" stroke-linecap="round" stroke-width="3"/>
    <line id="Line_26" data-name="Line 26" x2="7" y2="7" transform="translate(2.121 2.121)" fill="none" stroke="#237891" stroke-linecap="round" stroke-width="3"/>
</svg>
