<svg xmlns="http://www.w3.org/2000/svg" width="46.631" height="46.631" viewBox="0 0 46.631 46.631">
    <g id="Group_223" data-name="Group 223" transform="translate(-176.432 -107.992)">
        <circle id="Ellipse_21" data-name="Ellipse 21" cx="23.316" cy="23.316" r="23.316" transform="translate(176.432 107.992)" fill="#5b9d15"/>
        <path id="Path_52" data-name="Path 52" d="M102.315,317.21l7.73,6.358,13.105-18.2" transform="translate(87.988 -183.161)" fill="none" stroke="#fff" stroke-linecap="round" stroke-linejoin="round" stroke-width="4"/>
    </g>
</svg>
