<svg xmlns="http://www.w3.org/2000/svg" width="355.185" height="172.349" viewBox="0 0 355.185 172.349">
    <g id="Group_263" data-name="Group 263" transform="translate(-25.681 -213.714)">
        <g id="Group_259" data-name="Group 259" transform="translate(65.081 -9.286) rotate(9)">
            <path id="Path_163" data-name="Path 163" d="M173.554,75.118l23.776,90.1a6.194,6.194,0,0,1-4.488,7.493l-43.837,11a6.194,6.194,0,0,1-7.493-4.487l-23.775-90.1a6.194,6.194,0,0,1,4.487-7.493l43.837-11A6.194,6.194,0,0,1,173.554,75.118Z" transform="matrix(0.839, 0.545, -0.545, 0.839, 20.677, 114.718)" fill="none" stroke="#fff" stroke-linejoin="round" stroke-width="8.715"/>
            <g id="Group_239" data-name="Group 239" transform="matrix(0.839, 0.545, -0.545, 0.839, 20.677, 114.718)">
                <path id="Path_155" data-name="Path 155" d="M172.015,132.6l-25.022,6.224a2.921,2.921,0,0,1-3.752-3.979l7.3-23.394a3.11,3.11,0,0,1,5.511-1.371h0l17.411,17.247a2.921,2.921,0,0,1-1.451,5.273Zm-18.746-21.956a1.783,1.783,0,0,0-1.087,1.318l-7.3,23.394a1.262,1.262,0,0,0,1.7,1.8l25.022-6.223c.721-.179,1.2-.516,1.312-.924a1.659,1.659,0,0,0-.655-1.465L154.847,111.3A1.782,1.782,0,0,0,153.269,110.645Z" fill="#fff"/>
                <rect id="Rectangle_160" data-name="Rectangle 160" width="1.773" height="9.651" rx="0.702" transform="matrix(0.97, -0.241, 0.241, 0.97, 154.176, 117.965)" fill="#fff"/>
                <circle id="Ellipse_61" data-name="Ellipse 61" cx="1.013" cy="1.013" r="1.013" transform="translate(156.927 128.409)" fill="#fff"/>
            </g>
        </g>
        <g id="Group_258" data-name="Group 258" transform="translate(-5.071 35.651) rotate(-10)">
            <rect id="Rectangle_161" data-name="Rectangle 161" width="17.585" height="4.536" rx="2.268" transform="translate(225.766 309.617)" fill="#fff"/>
            <path id="Path_158" data-name="Path 158" d="M143.569,315.692A22.609,22.609,0,1,0,166.177,338.3,22.608,22.608,0,0,0,143.569,315.692Zm0,36.573A13.965,13.965,0,1,1,157.533,338.3,13.965,13.965,0,0,1,143.569,352.265Z" transform="translate(10 18)" fill="#13667f"/>
            <path id="Path_159" data-name="Path 159" d="M267.108,315.692A22.609,22.609,0,1,0,289.716,338.3,22.608,22.608,0,0,0,267.108,315.692Zm0,36.573A13.965,13.965,0,1,1,281.072,338.3,13.965,13.965,0,0,1,267.108,352.265Z" transform="translate(10 18)" fill="#13667f"/>
            <circle id="Ellipse_62" data-name="Ellipse 62" cx="4.523" cy="4.523" r="4.523" transform="translate(149.046 351.777)" fill="#13667f"/>
            <circle id="Ellipse_63" data-name="Ellipse 63" cx="4.523" cy="4.523" r="4.523" transform="translate(273.483 351.777)" fill="#13667f"/>
            <circle id="Ellipse_64" data-name="Ellipse 64" cx="12.836" cy="12.836" r="12.836" transform="translate(198.81 261.018)" fill="#c50013"/>
            <g id="Group_238" data-name="Group 238" transform="translate(10 18)">
                <line id="Line_74" data-name="Line 74" x1="9.716" y2="9.716" transform="translate(197.319 250.996)" fill="none" stroke="#fff" stroke-linecap="round" stroke-linejoin="round" stroke-width="2"/>
                <line id="Line_75" data-name="Line 75" x1="9.716" y1="9.716" transform="translate(197.319 250.996)" fill="none" stroke="#fff" stroke-linecap="round" stroke-linejoin="round" stroke-width="2"/>
            </g>
            <path id="Path_160" data-name="Path 160" d="M282.764,278.473c-5.8-1.321-32.861,3.083-46.991,2.909l14.158-61.606c3.508.068,28.635.527,31.507.629l1.721-2.75c-2.567-.091-86.449-2.776-98.02,3.974-9.094,5.305-38.622,46.2-51.451,64.337-36.922,2.756-40.44,5.725-40.44,5.725v14.73H283.015S286.23,279.262,282.764,278.473ZM186.651,224.22c7.171-4.183,37.736-4.829,60.214-4.5l-10.282,44.738c.131-4.748-.509-8.723-2.851-9.5-6.46-2.138-8.073-1.142-9.787,0-4.452,2.968-13.375,19.523-17.159,26.812-7.745.254-15.842.609-24.072,1.036a2.434,2.434,0,0,0-.2-.452l-10.339-17.909a2.512,2.512,0,0,0-4.351,2.512l9.322,16.147q-2.962.164-5.935.338l-6.683-8.786L147.1,285q-4.827.336-9.553.683C154.33,262.012,179.129,228.608,186.651,224.22Z" transform="translate(10 18)" fill="#13667f"/>
            <path id="Path_161" data-name="Path 161" d="M295.818,232.011c-11.445-21.688-16.114-12.362-16.114-12.362,28.93,50.6-13.418,66.031-13.418,66.031s-152.844,3.236-166.87,4.223c-24.344,1.714-7.806,44.546-7.806,44.546s10.15.54,25.9,1.216a26.387,26.387,0,0,1,52.754,1.034c0,.276-.012.549-.02.823,23.5.628,48.724,1,70.265.633-.026-.482-.042-.968-.042-1.456a26.392,26.392,0,0,1,52.48-3.988,4.155,4.155,0,0,0,1.174-.992c9.752-13,3.276-50.765,3.276-50.765S306.57,252.384,295.818,232.011Z" transform="translate(10 18)" fill="#13667f"/>
            <path id="Path_162" data-name="Path 162" d="M202.518,270.032s-7.419.41-10.31,4.674a89.771,89.771,0,0,1-6.128,7.935l24.81-1.009S213.587,269.131,202.518,270.032Z" transform="translate(10 18)" fill="#002270"/>
            <path id="Path_157" data-name="Path 157" d="M299.208,240.72l9.064,41.107s10.275,3.121,11.52,14.326-10.741,37.513-10.741,37.513l-16.1-.955-3.359-45.28Z" transform="translate(10 18)" fill="#13667f"/>
        </g>
    </g>
</svg>
