<svg xmlns="http://www.w3.org/2000/svg" width="360.365" height="349.039" viewBox="0 0 360.365 349.039">
    <g id="Group_232" data-name="Group 232" transform="translate(297.688 54.993)">
        <line id="Line_57" data-name="Line 57" x1="16.715" y2="59.044" transform="translate(-43.405 120.541)" fill="none" stroke="#092270" stroke-linejoin="round" stroke-width="37.637"/>
        <g id="Group_230" data-name="Group 230" transform="translate(-74.46 -47.425)">
            <path id="Path_131" data-name="Path 131" d="M278.99,189.945,242.824,328.735a9.532,9.532,0,0,1-11.676,6.66l-67.094-18.357a9.532,9.532,0,0,1-6.66-11.676L193.56,166.571a9.533,9.533,0,0,1,11.676-6.66l67.094,18.357A9.533,9.533,0,0,1,278.99,189.945Z" transform="translate(-157.054 -159.575)" fill="none" stroke="#fff" stroke-linejoin="round" stroke-width="15.055"/>
            <line id="Line_58" data-name="Line 58" y1="20.304" x2="24.514" transform="translate(96.219 90.507)" fill="none" stroke="#092270" stroke-linecap="round" stroke-linejoin="round" stroke-width="23.277"/>
            <line id="Line_59" data-name="Line 59" y1="15.655" x2="34.688" transform="translate(87.586 117.316)" fill="none" stroke="#092270" stroke-linecap="round" stroke-linejoin="round" stroke-width="22.472"/>
            <line id="Line_60" data-name="Line 60" y1="10.222" x2="25.72" transform="translate(78.694 145.908)" fill="none" stroke="#092270" stroke-linecap="round" stroke-linejoin="round" stroke-width="24.428"/>
            <line id="Line_61" data-name="Line 61" x2="16.785" y2="33.359" transform="translate(0 93.442)" fill="none" stroke="#092270" stroke-linecap="round" stroke-linejoin="round" stroke-width="24.428"/>
        </g>
        <path id="Path_132" data-name="Path 132" d="M-67.674,318.64S123.068,544.728,143.658,474.905c16.2-54.941,28.342-100.4,28.342-100.4" transform="translate(-207 -224.35)" fill="none" stroke="#052271" stroke-linejoin="round" stroke-width="60.22"/>
        <g id="Group_231" data-name="Group 231" transform="translate(-40.216 12.574)">
            <path id="Path_133" data-name="Path 133" d="M237.7,273.218l-38.255-10.552c-2.08-.574-3.445-1.775-3.844-3.383s.247-3.308,1.818-4.787l27.462-25.857a4.787,4.787,0,0,1,8.425,2.324h0l10.323,36.279c.591,2.075.273,3.866-.893,5.042S239.784,273.791,237.7,273.218Zm-8.556-43.6a2.744,2.744,0,0,0-2.453.946l-27.462,25.857a2.547,2.547,0,0,0-1.065,2.228c.156.632.879,1.168,1.982,1.473l38.256,10.552a1.943,1.943,0,0,0,2.685-2.707L230.77,231.686A2.744,2.744,0,0,0,229.147,229.615Z" transform="translate(-195.489 -226.92)" fill="#fff"/>
            <rect id="Rectangle_148" data-name="Rectangle 148" width="14.854" height="2.73" rx="1.212" transform="translate(25.397 27.516) rotate(-74.58)" fill="#fff"/>
            <circle id="Ellipse_41" data-name="Ellipse 41" cx="1.558" cy="1.558" r="1.558" transform="translate(24.182 29.843)" fill="#fff"/>
        </g>
    </g>
</svg>
