<svg id="Group_244" data-name="Group 244" xmlns="http://www.w3.org/2000/svg" width="32" height="31" viewBox="0 0 32 31">
    <path id="Path_166" data-name="Path 166" d="M15.5,0h1a15.5,15.5,0,0,1,0,31h-1a15.5,15.5,0,0,1,0-31Z" fill="#0d00a3"/>
    <text id="_" data-name="?" transform="translate(16.444 23)" fill="#fff" font-size="20" font-family="Calibri, sans-serif" font-weight="700">
        <tspan x="-4.38" y="0">?</tspan>
    </text>
</svg>
